<svg width="40" height="40" viewBox="0 0 40 40" fill="none" xmlns="http://www.w3.org/2000/svg">
<g clip-path="url(#clip0_2699_294)">
<path d="M32.5 40H7.5C3.3575 40 0 36.6425 0 32.5V7.5C0 3.3575 3.3575 0 7.5 0H32.5C36.6425 0 40 3.3575 40 7.5V32.5C40 36.6425 36.6425 40 32.5 40Z" fill="#E3F1FE"/>
<path d="M27.2412 22.4498C26.7575 22.7498 26.3 22.9835 25.8912 23.1498C25.6075 23.2748 25.3 23.3335 25 23.3335C24.7 23.3335 24.3913 23.2748 24.1088 23.1498C23.3838 22.8498 22.5 22.3498 21.6425 21.666H13.6837L14.9175 18.8323C15.0512 18.5323 15.3513 18.3323 15.6763 18.3323H18.96C18.7263 17.816 18.5437 17.2573 18.4438 16.666H15.675C14.6838 16.666 13.7837 17.2573 13.3837 18.166L11.7338 21.9573C11.725 21.9735 11.7338 21.991 11.725 22.016C10.7088 22.5335 10 23.5748 10 24.791V27.916C10 29.066 10.9337 29.9998 12.0837 29.9998C13.2337 29.9998 14.1675 29.066 14.1675 27.916V27.4998H24.1675V27.916C24.1662 29.066 25.1 29.9998 26.25 29.9998C27.4 29.9998 28.3337 29.066 28.3337 27.916V24.791C28.3337 23.8498 27.9087 23.0085 27.2412 22.4498ZM15 25.8335H13.3337C12.875 25.8335 12.5 25.4585 12.5 24.9998C12.5 24.541 12.875 24.166 13.3337 24.166H15C15.4588 24.166 15.8337 24.541 15.8337 24.9998C15.8337 25.4585 15.4588 25.8335 15 25.8335ZM25 25.8335H23.3337C22.875 25.8335 22.5 25.4585 22.5 24.9998C22.5 24.541 22.875 24.166 23.3337 24.166H25C25.4587 24.166 25.8337 24.541 25.8337 24.9998C25.8337 25.4585 25.4587 25.8335 25 25.8335Z" fill="#2B59FF"/>
<path d="M29.5762 11.5212L25.2012 10.0337C25.0712 9.98875 24.93 9.98875 24.7988 10.0337L20.4238 11.5212C20.17 11.6075 20 11.845 20 12.1137V15.4625C20 19.55 24.5613 21.535 24.7563 21.6187C24.9138 21.685 25.0875 21.685 25.245 21.6187C25.4387 21.535 30 19.5487 30 15.4612V12.1137C30 11.845 29.83 11.6075 29.5762 11.5212ZM27.7387 14.6812L25.4475 17.5975C25.155 17.97 24.6087 18.0237 24.25 17.715L22.7912 16.465C22.4412 16.165 22.4 15.64 22.7012 15.29C23.0012 14.9412 23.5275 14.9 23.875 15.2L24.6738 15.8837L26.4287 13.6512C26.7125 13.29 27.2363 13.2262 27.5988 13.5112C27.96 13.7962 28.0238 14.32 27.7387 14.6812Z" fill="#008DFF"/>
</g>
<defs>
<clipPath id="clip0_2699_294">
<rect width="40" height="40" fill="white"/>
</clipPath>
</defs>
</svg>
