<svg width="40" height="40" viewBox="0 0 40 40" fill="none" xmlns="http://www.w3.org/2000/svg">
<g clip-path="url(#clip0_2699_705)">
<path d="M32.5 40H7.5C3.3575 40 0 36.6425 0 32.5V7.5C0 3.3575 3.3575 0 7.5 0H32.5C36.6425 0 40 3.3575 40 7.5V32.5C40 36.6425 36.6425 40 32.5 40Z" fill="#E3F1FE"/>
<path d="M29.575 19.8552L25.2 18.3677C25.07 18.3227 24.9287 18.3227 24.7975 18.3677L20.4225 19.8552C20.17 19.9415 20 20.179 20 20.4465V23.7952C20 27.8827 24.5613 29.8677 24.7563 29.9515C24.9138 30.0177 25.0875 30.0177 25.245 29.9515C25.4387 29.8677 30 27.8827 30 23.7952V20.4465C30 20.179 29.83 19.9415 29.575 19.8552ZM27.7375 23.0152L25.4463 25.9315C25.1538 26.304 24.6075 26.3577 24.2488 26.049L22.79 24.799C22.44 24.499 22.3987 23.974 22.7 23.624C23 23.2752 23.5263 23.234 23.8738 23.534L24.6725 24.2177L26.4275 21.9852C26.7113 21.624 27.235 21.5602 27.5975 21.8452C27.9587 22.129 28.0225 22.654 27.7375 23.0152Z" fill="#008DFF"/>
<path d="M19.1661 15.8589C16.6749 15.8589 14.4911 17.3251 13.7249 19.5001L12.5911 22.7414C12.3661 23.3826 12.5574 24.0751 13.0749 24.5326C13.6661 25.0576 14.5161 25.1739 15.2411 24.8239C16.2161 24.3489 17.2661 24.0576 18.3324 23.9651V20.4501C18.3324 19.4664 18.9574 18.5914 19.8911 18.2751L22.9574 17.2339C21.9411 16.3501 20.6249 15.8589 19.1661 15.8589Z" fill="#2B59FF"/>
<path d="M17.0487 14.6524C16.3287 14.6524 15.5087 14.0912 14.9712 13.1599C14.655 12.6137 14.4862 12.0187 14.495 11.4862C14.505 10.8837 14.7487 10.4012 15.1637 10.1612C15.5787 9.92115 16.1175 9.95115 16.645 10.2437C17.1112 10.5024 17.5412 10.9462 17.8562 11.4924C18.1725 12.0387 18.3412 12.6337 18.3325 13.1662C18.3225 13.7687 18.0787 14.2512 17.6637 14.4912C17.475 14.6012 17.2662 14.6524 17.0487 14.6524Z" fill="#2B59FF"/>
<path d="M21.2836 14.6522C21.0661 14.6522 20.8573 14.601 20.6686 14.4922C20.2536 14.2535 20.0098 13.7697 19.9998 13.1672C19.9911 12.6347 20.1598 12.0397 20.4761 11.4935C20.7911 10.9472 21.2211 10.5035 21.6873 10.2447C22.2148 9.95345 22.7548 9.9222 23.1686 10.1622C23.5836 10.401 23.8273 10.8847 23.8373 11.4872C23.8461 12.0197 23.6773 12.6147 23.3611 13.161C22.8236 14.091 22.0023 14.6522 21.2836 14.6522Z" fill="#2B59FF"/>
<path d="M12.6199 17.3537C12.4974 17.3537 12.3699 17.3412 12.2411 17.3149C11.7436 17.2149 11.2436 16.9337 10.8311 16.5224C9.92239 15.6137 9.72864 14.3837 10.3886 13.7237C10.7211 13.3912 11.2299 13.2637 11.7786 13.3724C12.2761 13.4724 12.7761 13.7537 13.1874 14.1649C14.0961 15.0737 14.2899 16.3037 13.6299 16.9637C13.3761 17.2187 13.0199 17.3537 12.6199 17.3537Z" fill="#2B59FF"/>
<path d="M25.7125 17.3538C25.3125 17.3538 24.9563 17.2188 24.7025 16.9638C24.0413 16.3038 24.235 15.0738 25.145 14.1651C25.5563 13.7538 26.0563 13.4726 26.5538 13.3726C27.105 13.2626 27.6113 13.3901 27.9438 13.7238C28.605 14.3851 28.4113 15.6138 27.5013 16.5226C27.09 16.9338 26.5888 17.2151 26.0913 17.3151C25.9625 17.3413 25.835 17.3538 25.7125 17.3538Z" fill="#2B59FF"/>
</g>
<defs>
<clipPath id="clip0_2699_705">
<rect width="40" height="40" fill="white"/>
</clipPath>
</defs>
</svg>
